Tanggal|KodeEfek|NamaEfek|BMPK Emiten|Keterangan
20201008|AALI|ASTRA AGRO LESTARI Tbk|0.5|001/MM-00016.01/2020
20201008|ABBA|MAHAKA MEDIA Tbk|0.5|001/MM-00016.01/2020
20201008|ABDA|ASURANSI BINA DANA ARTA Tbk|0.5|001/MM-00016.01/2020
20201008|ABMM|ABM INVESTAMA Tbk|0.5|001/MM-00016.01/2020
20201008|ACES|ACE HARDWARE INDONESIA Tbk|0.5|001/MM-00016.01/2020
20201008|ACST|ACSET INDONUSA Tbk|0.5|001/MM-00016.01/2020
20201008|ADES|AKASHA WIRA INTERNATIONAL Tbk|0.5|001/MM-00016.01/2020
20201008|ADFO|ADINDO FORESTA INDONESIA Tbk|0.5|001/MM-00016.01/2020
20201008|ADHI|ADHI KARYA (PERSERO) Tbk|0.5|001/MM-00016.01/2020
20201008|ADMF|ADIRA DINAMIKA MULTI FINANCE Tbk|0.5|001/MM-00016.01/2020
20201008|ADMG|POLYCHEM INDONESIA Tbk|0.5|001/MM-00016.01/2020
20201008|ADRO|ADARO ENERGY Tbk|0.5|001/MM-00016.01/2020
20201008|AGII|ANEKA GAS INDUSTRI Tbk|0.5|001/MM-00016.01/2020
20201008|AGRO|BANK RAKYAT INDONESIA AGRONIAGA Tbk|0.5|001/MM-00016.01/2020
20201008|AGRS|BANK AGRIS Tbk|0.5|001/MM-00016.01/2020
20201008|AHAP|ASURANSI HARTA AMAN PRATAMA Tbk|0.5|001/MM-00016.01/2020
20201008|AIMS|AKBAR INDO MAKMUR STIMEC Tbk|0.5|001/MM-00016.01/2020
20201008|AISA|TIGA PILAR SEJAHTERA FOOD Tbk|0.5|001/MM-00016.01/2020
20201008|AKKU|ANUGERAH KAGUM KARYA UTAMA Tbk|0.5|001/MM-00016.01/2020
20201008|AKPI|ARGHA KARYA PRIMA INDUSTRY Tbk|0.5|001/MM-00016.01/2020
20201008|AKRA|AKR CORPORINDO Tbk|0.5|001/MM-00016.01/2020
20201008|AKSI|MAJAPAHIT INTI CORPORA Tbk|0.5|001/MM-00016.01/2020
20201008|ALDI|ALTER ABADI Tbk|0.5|001/MM-00016.01/2020
20201008|ALDO|ALKINDO NARATAMA Tbk|0.5|001/MM-00016.01/2020
20201008|ALKA|ALAKASA INDUSTRINDO Tbk|0.5|001/MM-00016.01/2020
20201008|ALMI|ALUMINDO LIGHT METAL INDUSTRY Tbk|0.5|001/MM-00016.01/2020
20201008|ALTO|TRI BANYAN TIRTA Tbk|0.5|001/MM-00016.01/2020
20201008|AMAG|ASURANSI MULTI ARTHA GUNA Tbk|0.5|001/MM-00016.01/2020
20201008|AMFG|ASAHIMAS FLAT GLASS Tbk|0.5|001/MM-00016.01/2020
20201008|AMIN|ATELIERS MECANIQUES D`INDONESIE Tbk|0.5|001/MM-00016.01/2020
20201008|AMRT|SUMBER ALFARIA TRIJAYA Tbk|0.5|001/MM-00016.01/2020
20201008|ANDI|ANDIRA AGRO Tbk|0.5|001/MM-00016.01/2020
20201008|ANJT|AUSTINDO NUSANTARA JAYA Tbk|0.5|001/MM-00016.01/2020
20201008|ANTM|ANEKA TAMBANG Tbk|0.5|001/MM-00016.01/2020
20201008|APEX|APEXINDO PRATAMA DUTA Tbk|0.5|001/MM-00016.01/2020
20201008|APIC|PACIFIC STRATEGIC FINANCIAL Tbk|0.5|001/MM-00016.01/2020
20201008|APII|ARITA PRIMA INDONESIA Tbk|0.5|001/MM-00016.01/2020
20201008|APLI|ASIAPLAST INDUSTRIES Tbk|0.5|001/MM-00016.01/2020
20201008|APLN|AGUNG PODOMORO LAND Tbk|0.5|001/MM-00016.01/2020
20201008|APOL|ARPENI PRATAMA OCEAN LINE Tbk|0.5|001/MM-00016.01/2020
20201008|ARGO|ARGO PANTES Tbk|0.5|001/MM-00016.01/2020
20201008|ARII|ATLAS RESOURCES Tbk|0.5|001/MM-00016.01/2020
20201008|ARMY|ARMIDIAN KARYATAMA Tbk|0.5|001/MM-00016.01/2020
20201008|ARNA|ARWANA CITRAMULIA Tbk|0.5|001/MM-00016.01/2020
20201008|ARTA|ARTHAVEST Tbk|0.5|001/MM-00016.01/2020
20201008|ARTI|RATU PRABU ENERGI Tbk|0.5|001/MM-00016.01/2020
20201008|ARTO|BANK ARTOS INDONESIA Tbk|0.5|001/MM-00016.01/2020
20201008|ASBI|ASURANSI BINTANG Tbk|0.5|001/MM-00016.01/2020
20201008|ASDM|ASURANSI DAYIN MITRA Tbk|0.5|001/MM-00016.01/2020
20201008|ASGR|ASTRA GRAPHIA Tbk|0.5|001/MM-00016.01/2020
20201008|ASII|ASTRA INTERNATIONAL Tbk|0.5|001/MM-00016.01/2020
20201008|ASJT|ASURANSI JASA TANIA Tbk|0.5|001/MM-00016.01/2020
20201008|ASMI|ASURANSI KRESNA MITRA Tbk|0.5|001/MM-00016.01/2020
20201008|ASRI|ALAM SUTERA REALTY Tbk|0.5|001/MM-00016.01/2020
20201008|ASRM|ASURANSI RAMAYANA Tbk|0.5|001/MM-00016.01/2020
20201008|ASSA|ADI SARANA ARMADA Tbk|0.5|001/MM-00016.01/2020
20201008|ATIC|ANABATIC TECHNOLOGIES Tbk|0.5|001/MM-00016.01/2020
20201008|ATPK|BARA JAYA INTERNASIONAL Tbk|0.5|001/MM-00016.01/2020
20201008|AUTO|ASTRA OTOPARTS Tbk|0.5|001/MM-00016.01/2020
20201008|BABP|BANK MNC INTERNASIONAL Tbk|0.5|001/MM-00016.01/2020
20201008|BACA|BANK CAPITAL INDONESIA Tbk|0.5|001/MM-00016.01/2020
20201008|BAJA|SARANACENTRAL BAJATAMA Tbk|0.5|001/MM-00016.01/2020
20201008|BALI|BALI TOWERINDO SENTRA Tbk|0.5|001/MM-00016.01/2020
20201008|BAPA|BEKASI ASRI PEMULA Tbk|0.5|001/MM-00016.01/2020
20201008|BASS|BAHTERA ADIMINA SAMUDRA Tbk|0.5|001/MM-00016.01/2020
20201008|BATA|SEPATU BATA Tbk|0.5|001/MM-00016.01/2020
20201008|BAYU|BAYU BUANA Tbk|0.5|001/MM-00016.01/2020
20201008|BBCA|BANK CENTRAL ASIA Tbk|0.5|001/MM-00016.01/2020
20201008|BBHI|BANK HARDA INTERNASIONAL Tbk|0.5|001/MM-00016.01/2020
20201008|BBKP|BANK BUKOPIN Tbk|0.5|001/MM-00016.01/2020
20201008|BBLD|BUANA FINANCE Tbk|0.5|001/MM-00016.01/2020
20201008|BBMD|BANK MESTIKA DHARMA Tbk|0.5|001/MM-00016.01/2020
20201008|BBNI|BANK NEGARA INDONESIA Tbk|0.5|001/MM-00016.01/2020
20201008|BBNP|BANK NUSANTARA PARAHYANGAN Tbk|0.5|001/MM-00016.01/2020
20201008|BBRI|BANK RAKYAT INDONESIA (PERSERO) Tbk|0.5|001/MM-00016.01/2020
20201008|BBRM|PELAYARAN NASIONAL BINA BUANA RAYA Tbk|0.5|001/MM-00016.01/2020
20201008|BBTN|BANK TABUNGAN NEGARA (PERSERO) Tbk|0.5|001/MM-00016.01/2020
20201008|BBYB|BANK YUDHA BHAKTI Tbk|0.5|001/MM-00016.01/2020
20201008|BCAP|MNC KAPITAL INDONESIA Tbk|0.5|001/MM-00016.01/2020
20201008|BCIC|BANK JTRUST INDONESIA Tbk|0.5|001/MM-00016.01/2020
20201008|BCIP|BUMI CITRA PERMAI Tbk|0.5|001/MM-00016.01/2020
20201008|BDMN|BANK DANAMON INDONESIA Tbk|0.5|001/MM-00016.01/2020
20201008|BEKS|BANK PEMBANGUNAN DAERAH BANTEN Tbk|0.5|001/MM-00016.01/2020
20201008|BELL|TRISULA TEXTILE INDUSTRIES Tbk|0.5|001/MM-00016.01/2020
20201008|BEST|BEKASI FAJAR INDUSTRIAL ESTATE Tbk|0.5|001/MM-00016.01/2020
20201008|BFIN|BFI FINANCE INDONESIA Tbk|0.5|001/MM-00016.01/2020
20201008|BGTG|BANK GANESHA Tbk|0.5|001/MM-00016.01/2020
20201008|BHIT|MNC INVESTAMA Tbk|0.5|001/MM-00016.01/2020
20201008|BIKA|BINAKARYA JAYA ABADI Tbk|0.5|001/MM-00016.01/2020
20201008|BIMA|PRIMARINDO ASIA INFRASTRUCTURE Tbk|0.5|001/MM-00016.01/2020
20201008|BINA|BANK INA PERDANA Tbk|0.5|001/MM-00016.01/2020
20201008|BIPI|BENAKAT INTEGRA Tbk|0.5|001/MM-00016.01/2020
20201008|BIPP|BHUWANATALA INDAH PERMAI Tbk|0.5|001/MM-00016.01/2020
20201008|BIRD|BLUE BIRD Tbk|0.5|001/MM-00016.01/2020
20201008|BISI|BISI INTERNATIONAL Tbk|0.5|001/MM-00016.01/2020
20201008|BJBR|BANK JABAR BANTEN Tbk|0.5|001/MM-00016.01/2020
20201008|BJTM|BANK PEMBANGUNAN DAERAH JAWA TIMUR Tbk|0.5|001/MM-00016.01/2020
20201008|BKDP|BUKIT DARMO PROPERTY Tbk|0.5|001/MM-00016.01/2020
20201008|BKSL|SENTUL CITY Tbk|0.5|001/MM-00016.01/2020
20201008|BKSW|BANK QNB INDONESIA Tbk|0.5|001/MM-00016.01/2020
20201008|BLTA|BERLIAN LAJU TANKER Tbk|0.5|001/MM-00016.01/2020
20201008|BLTZ|GRAHA LAYAR PRIMA Tbk|0.5|001/MM-00016.01/2020
20201008|BM05|Benchmark Bond 05|0.5|001/MM-00016.01/2020
20201008|BM10|Benchmark Bond 10|0.5|001/MM-00016.01/2020
20201008|BMAS|BANK MASPION INDONESIA Tbk|0.5|001/MM-00016.01/2020
20201008|BMRI|BANK MANDIRI ( PERSERO ) Tbk|0.5|001/MM-00016.01/2020
20201008|BMSR|BINTANG MITRA SEMESTARAYA Tbk|0.5|001/MM-00016.01/2020
20201008|BMTR|GLOBAL MEDIACOM Tbk|0.5|001/MM-00016.01/2020
20201008|BNBA|BANK BUMI ARTA Tbk|0.5|001/MM-00016.01/2020
20201008|BNBR|BAKRIE AND BROTHERS Tbk|0.5|001/MM-00016.01/2020
20201008|BNGA|BANK CIMB NIAGA Tbk|0.5|001/MM-00016.01/2020
20201008|BNII|BANK MAYBANK INDONESIA Tbk|0.5|001/MM-00016.01/2020
20201008|BNII-R|NULL|0.5|001/MM-00016.01/2020
20201008|BNLI|BANK PERMATA Tbk|0.5|001/MM-00016.01/2020
20201008|BOGA|BINTANG OTO GLOBAL Tbk|0.5|001/MM-00016.01/2020
20201008|BOLT|GARUDA METALINDO Tbk|0.5|001/MM-00016.01/2020
20201008|BORN|BORNEO LUMBUNG ENERGI DAN METAL Tbk|0.5|001/MM-00016.01/2020
20201008|BOSS|BORNEO OLAH SARANA SUKSES Tbk|0.5|001/MM-00016.01/2020
20201008|BPFI|BATAVIA PROSPERINDO FINANCE Tbk|0.5|001/MM-00016.01/2020
20201008|BPII|BATAVIA PROSPERINDO INTERNASIONAL Tbk|0.5|001/MM-00016.01/2020
20201008|BPTR|BATAVIA PROSPERINDO TRANS Tbk|0.5|001/MM-00016.01/2020
20201008|BRAM|INDO KORDSA Tbk|0.5|001/MM-00016.01/2020
20201008|BRAU|NULL|0.5|001/MM-00016.01/2020
20201008|BRIS|BANK BRISYARIAH Tbk|0.5|001/MM-00016.01/2020
20201008|BRMS|BUMI RESOURCES MINERALS Tbk|0.5|001/MM-00016.01/2020
20201008|BRNA|BERLINA Tbk|0.5|001/MM-00016.01/2020
20201008|BRPT|BARITO PACIFIC Tbk|0.5|001/MM-00016.01/2020
20201008|BSDE|BUMI SERPONG DAMAI Tbk|0.5|001/MM-00016.01/2020
20201008|BSIM|BANK SINAR MAS Tbk|0.5|001/MM-00016.01/2020
20201008|BSSR|BARAMULTI SUKSESSARANA Tbk|0.5|001/MM-00016.01/2020
20201008|BSWD|BANK OF INDIA INDONESIA Tbk|0.5|001/MM-00016.01/2020
20201008|BTEK|BUMI TEKNOKULTURA UNGGUL Tbk|0.5|001/MM-00016.01/2020
20201008|BTEL|BAKRIE TELECOM Tbk|0.5|001/MM-00016.01/2020
20201008|BTON|BETONJAYA MANUNGGAL Tbk|0.5|001/MM-00016.01/2020
20201008|BTPN|BANK TABUNGAN PENSIUNAN NASIONAL Tbk|0.5|001/MM-00016.01/2020
20201008|BTPS|BANK TABUNGAN PENSIUNAN NASIONAL SYARIAH Tbk|0.5|001/MM-00016.01/2020
20201008|BUDI|BUDI STARCH & SWEETENER Tbk|0.5|001/MM-00016.01/2020
20201008|BUKK|BUKAKA TEKNIK UTAMA Tbk|0.5|001/MM-00016.01/2020
20201008|BULL|BUANA LINTAS LAUTAN Tbk|0.5|001/MM-00016.01/2020
20201008|BULL-W2|BULL-W2|0.5|001/MM-00016.01/2020
20201008|BUMI|BUMI RESOURCES Tbk|0.5|001/MM-00016.01/2020
20201008|BUVA|BUKIT ULUWATU VILLA Tbk|0.5|001/MM-00016.01/2020
20201008|BVIC|BANK VICTORIA INTERNATIONAL  Tbk|0.5|001/MM-00016.01/2020
20201008|BWPT|EAGLE HIGH PLANTATION, Tbk|0.5|001/MM-00016.01/2020
20201008|BYAN|BAYAN RESOURCES Tbk|0.5|001/MM-00016.01/2020
20201008|CAKK|CAHAYAPUTRA ASA KERAMIK Tbk|0.5|001/MM-00016.01/2020
20201008|CAMP|CAMPINA ICE CREAM INDUSTRY Tbk|0.5|001/MM-00016.01/2020
20201008|CANI|CAPITOL NUSANTARA INDONESIA Tbk|0.5|001/MM-00016.01/2020
20201008|CARS|BINTRACO DHARMA Tbk|0.5|001/MM-00016.01/2020
20201008|CASA|CAPITAL FINANCIAL INDONESIA Tbk|0.5|001/MM-00016.01/2020
20201008|CASS|CARDIG AERO SERVICES Tbk|0.5|001/MM-00016.01/2020
20201008|CEKA|WILMAR CAHAYA INDONESIA Tbk|0.5|001/MM-00016.01/2020
20201008|CENT|CENTRATAMA TELEKOMUNIKASI INDONESIA Tbk|0.5|001/MM-00016.01/2020
20201008|CFIN|CLIPAN FINANCE INDONESIA Tbk|0.5|001/MM-00016.01/2020
20201008|CINT|CHITOSE INTERNASIONAL Tbk|0.5|001/MM-00016.01/2020
20201008|CITA|CITA MINERAL INVESTINDO Tbk|0.5|001/MM-00016.01/2020
20201008|CITY|NATURA CITY DEVELOPMENTS Tbk|0.5|001/MM-00016.01/2020
20201008|CKRA|CAKRA MINERAL Tbk|0.5|001/MM-00016.01/2020
20201008|CLEO|SARIGUNA PRIMATIRTA Tbk|0.5|001/MM-00016.01/2020
20201008|CLPI|COLORPAK INDONESIA Tbk|0.5|001/MM-00016.01/2020
20201008|CMNP|CITRA MARGA NUSAPHALA PERSADA Tbk|0.5|001/MM-00016.01/2020
20201008|CMPP|AIRASIA INDONESIA Tbk|0.5|001/MM-00016.01/2020
20201008|CNKO|EXPLOITASI ENERGI INDONESIA Tbk|0.5|001/MM-00016.01/2020
20201008|CNTB|CENTEX Tbk SERI B COMPANY LISTING|0.5|001/MM-00016.01/2020
20201008|CNTX|CENTEX Tbk SERI A PREFEREN|0.5|001/MM-00016.01/2020
20201008|COWL|COWELL DEVELOPMENT Tbk|0.5|001/MM-00016.01/2020
20201008|CPDW|INDO SETU BARA RESOURCES Tbk|0.5|001/MM-00016.01/2020
20201008|CPIN|CHAROEN POKPHAND INDONESIA Tbk|0.5|001/MM-00016.01/2020
20201008|CPRO|CENTRAL PROTEINAPRIMA Tbk|0.5|001/MM-00016.01/2020
20201008|CSAP|CATUR SENTOSA ADIPRANA Tbk|0.5|001/MM-00016.01/2020
20201008|CSIS|CAHAYASAKTI INVESTINDO SUKSES Tbk|0.5|001/MM-00016.01/2020
20201008|CTBN|CITRA TUBINDO Tbk|0.5|001/MM-00016.01/2020
20201008|CTRA|CIPUTRA DEVELOPMENT Tbk|0.5|001/MM-00016.01/2020
20201008|CTTH|CITATAH  Tbk|0.5|001/MM-00016.01/2020
20201008|DAJK|Dwi Aneka Jaya Kemasindo Tbk.|0.5|001/MM-00016.01/2020
20201008|DART|DUTA ANGGADA REALTY Tbk|0.5|001/MM-00016.01/2020
20201008|DAYA|DUTA INTIDAYA Tbk|0.5|001/MM-00016.01/2020
20201008|DEAL|DEWATA FREIGHTINTERNATIONAL Tbk|0.5|001/MM-00016.01/2020
20201008|DEFI|DANASUPRA ERAPACIFIC Tbk|0.5|001/MM-00016.01/2020
20201008|DEWA|DARMA HENWA Tbk|0.5|001/MM-00016.01/2020
20201008|DFAM|DAFAM PROPERTY INDONESIA Tbk|0.5|001/MM-00016.01/2020
20201008|DFAM-W|DFAM-W|0.5|001/MM-00016.01/2020
20201008|DGIK|NUSA KONSTRUKSI ENJINIRING Tbk|0.5|001/MM-00016.01/2020
20201008|DIGI|ARKADIA DIGITAL MEDIA Tbk|0.5|001/MM-00016.01/2020
20201008|DILD|INTILAND DEVELOPMENT Tbk|0.5|001/MM-00016.01/2020
20201008|DIVA|DISTRIBUSI VOUCHER NUSANTARA Tbk|0.5|001/MM-00016.01/2020
20201008|DKFT|CENTRAL OMEGA RESOURCES Tbk|0.5|001/MM-00016.01/2020
20201008|DLTA|DELTA DJAKARTA Tbk|0.5|001/MM-00016.01/2020
20201008|DMAD|DEEMADE KARYA INDONESIA Tbk|0.5|001/MM-00016.01/2020
20201008|DMAS|PURADELTA LESTARI Tbk|0.5|001/MM-00016.01/2020
20201008|DNAR|BANK DINAR INDONESIA Tbk|0.5|001/MM-00016.01/2020
20201008|DNET|INDORITEL MAKMUR INTERNASIONAL Tbk|0.5|001/MM-00016.01/2020
20201008|DOID|DELTA DUNIA MAKMUR Tbk|0.5|001/MM-00016.01/2020
20201008|DPNS|DUTA PERTIWI NUSANTARA|0.5|001/MM-00016.01/2020
20201008|DPUM|DUA PUTRA UTAMA MAKMUR Tbk|0.5|001/MM-00016.01/2020
20201008|DSFI|DHARMA SAMUDERA FISHING INDUSTRIES Tbk|0.5|001/MM-00016.01/2020
20201008|DSNG|DHARMA SATYA NUSANTARA Tbk|0.5|001/MM-00016.01/2020
20201008|DSSA|DIAN SWASTATIKA SENTOSA Tbk|0.5|001/MM-00016.01/2020
20201008|DUCK|JAYA BERSAMA INDO Tbk|0.5|001/MM-00016.01/2020
20201008|DUTI|DUTA PERTIWI Tbk|0.5|001/MM-00016.01/2020
20201008|DVLA|DARYA - VARIA LABORATORIA Tbk|0.5|001/MM-00016.01/2020
20201008|DWGL|DWI GUNA LAKSANA Tbk|0.5|001/MM-00016.01/2020
20201008|DYAN|DYANDRA MEDIA INTERNATIONAL Tbk|0.5|001/MM-00016.01/2020
20201008|ECII|ELECTRONIC CITY INDONESIA Tbk|0.5|001/MM-00016.01/2020
20201008|EKAD|EKADHARMA INTERNATIONAL Tbk|0.5|001/MM-00016.01/2020
20201008|ELSA|ELNUSA Tbk|0.5|001/MM-00016.01/2020
20201008|ELTY|BAKRIELAND DEVELOPMENT Tbk|0.5|001/MM-00016.01/2020
20201008|EMDE|MEGAPOLITAN DEVELOPMENTS Tbk|0.5|001/MM-00016.01/2020
20201008|EMTK|ELANG MAHKOTA TEKNOLOGI Tbk|0.5|001/MM-00016.01/2020
20201008|ENRG|ENERGI MEGA PERSADA Tbk|0.5|001/MM-00016.01/2020
20201008|EPMT|ENSEVAL PUTERA MEGATRADING Tbk|0.5|001/MM-00016.01/2020
20201008|ERAA|ERAJAYA SWASEMBADA Tbk|0.5|001/MM-00016.01/2020
20201008|ERTX|ERATEX DJAJA Tbk|0.5|001/MM-00016.01/2020
20201008|ESSA|SURYA ESA PERKASA Tbk|0.5|001/MM-00016.01/2020
20201008|ESTI|EVER SHINE TEXTILE INDUSTRY|0.5|001/MM-00016.01/2020
20201008|ETWA|ETERINDO WAHANATAMA Tbk|0.5|001/MM-00016.01/2020
20201008|EXCL|XL Axiata Tbk|0.5|001/MM-00016.01/2020
20201008|FAST|FAST FOOD INDONESIA Tbk|0.5|001/MM-00016.01/2020
20201008|FASW|FAJAR SURYA WISESA Tbk|0.5|001/MM-00016.01/2020
20201008|FILM|MD PICTURES Tbk|0.5|001/MM-00016.01/2020
20201008|FINN|FIRST INDO AMERICAN LEASING Tbk|0.5|001/MM-00016.01/2020
20201008|FIRE|ALFA ENERGI INVESTAMA Tbk|0.5|001/MM-00016.01/2020
20201008|FISH|FKS MULTI AGRO Tbk|0.5|001/MM-00016.01/2020
20201008|FMII|FORTUNE MATE INDONESIA Tbk|0.5|001/MM-00016.01/2020
20201008|FORU|FORTUNE INDONESIA Tbk|0.5|001/MM-00016.01/2020
20201008|FORZ|FORZA LAND INDONESIA Tbk|0.5|001/MM-00016.01/2020
20201008|FPNI|LOTTE CHEMICAL TITAN Tbk|0.5|001/MM-00016.01/2020
20201008|FREN|SMARTFREN TELECOM Tbk, PT|0.5|001/MM-00016.01/2020
20201008|GAMA|GADING DEVELOPMENT Tbk|0.5|001/MM-00016.01/2020
20201008|GDST|GUNAWAN DIANJAYA STEEL Tbk|0.5|001/MM-00016.01/2020
20201008|GDYR|GOODYEAR INDONESIA Tbk|0.5|001/MM-00016.01/2020
20201008|GEMA|GEMA GRAHASARANA Tbk|0.5|001/MM-00016.01/2020
20201008|GEMS|GOLDEN ENERGY MINES Tbk|0.5|001/MM-00016.01/2020
20201008|GGRM|GUDANG GARAM Tbk|0.5|001/MM-00016.01/2020
20201008|GGST|GREAT GOLDEN STAR Tbk|0.5|001/MM-00016.01/2020
20201008|GHON|GIHON TELEKOMUNIKASI INDONESIA Tbk|0.5|001/MM-00016.01/2020
20201008|GIAA|GARUDA INDONESIA (PERSERO) Tbk|0.5|001/MM-00016.01/2020
20201008|GJTL|GAJAH TUNGGAL Tbk|0.5|001/MM-00016.01/2020
20201008|GLOB|GLOBAL TELESHOP Tbk|0.5|001/MM-00016.01/2020
20201008|GMCW|GRAHAMAS CITRAWISATA Tbk|0.5|001/MM-00016.01/2020
20201008|GMFI|GARUDA MAINTENANCE FACILITY AERO ASIA Tbk|0.5|001/MM-00016.01/2020
20201008|GMTD|GOWA MAKASSAR TOURISM DEVELOPMENT Tbk|0.5|001/MM-00016.01/2020
20201008|GOLD|VISI TELEKOMUNIKASI INFRASTRUKTUR Tbk, PT|0.5|001/MM-00016.01/2020
20201008|GOLL|GOLDEN PLANTATION Tbk|0.5|001/MM-00016.01/2020
20201008|GOOD|GARUDAFOOD PUTRA PUTRI JAYA Tbk|0.5|001/MM-00016.01/2020
20201008|GPRA|PERDANA GAPURAPRIMA Tbk|0.5|001/MM-00016.01/2020
20201008|GREN|Evergreen Invesco Tbk, PT|0.5|001/MM-00016.01/2020
20201008|GSMF|EQUITY DEVELOPMENT INVESTMENT Tbk|0.5|001/MM-00016.01/2020
20201008|GTBO|GARDA TUJUH BUANA Tbk|0.5|001/MM-00016.01/2020
20201008|GWSA|GREENWOOD SEJAHTERA Tbk|0.5|001/MM-00016.01/2020
20201008|GZCO|GOZCO PLANTATIONS Tbk|0.5|001/MM-00016.01/2020
20201008|HADE|HIMALAYA ENERGI PERKASA Tbk|0.5|001/MM-00016.01/2020
20201008|HDFA|RADANA BHASKARA FINANCE Tbk|0.5|001/MM-00016.01/2020
20201008|HDTX|PANASIA INDO RESOURCES Tbk|0.5|001/MM-00016.01/2020
20201008|HEAL|MEDIKALOKA HERMINA Tbk|0.5|001/MM-00016.01/2020
20201008|HELI|JAYA TRISHINDO Tbk|0.5|001/MM-00016.01/2020
20201008|HELI-W|HELI-W|0.5|001/MM-00016.01/2020
20201008|HERO|HERO SUPERMARKET Tbk|0.5|001/MM-00016.01/2020
20201008|HEXA|HEXINDO ADIPERKASA Tbk|0.5|001/MM-00016.01/2020
20201008|HITS|HUMPUSS INTERMODA TRANSPORTASI Tbk|0.5|001/MM-00016.01/2020
20201008|HKMU|HK METALS UTAMA Tbk|0.5|001/MM-00016.01/2020
20201008|HMSP|HANJAYA MANDALA SAMPOERNA Tbk|0.5|001/MM-00016.01/2020
20201008|HOKI|BUYUNG POETRA SEMBADA Tbk|0.5|001/MM-00016.01/2020
20201008|HOME|HOTEL MANDARINE REGENCY Tbk|0.5|001/MM-00016.01/2020
20201008|HOTL|SARASWATI GRIYA LESTARI Tbk|0.5|001/MM-00016.01/2020
20201008|HRTA|HARTADINATA ABADI Tbk|0.5|001/MM-00016.01/2020
20201008|HRUM|HARUM ENERGY Tbk|0.5|001/MM-00016.01/2020
20201008|IATA|INDONESIA TRANSPORT & INFRASTRUCTURE Tbk|0.5|001/MM-00016.01/2020
20201008|IBFN|INTAN BARUPRANA FINANCE Tbk|0.5|001/MM-00016.01/2020
20201008|IBST|INTI BANGUN SEJAHTERA Tbk|0.5|001/MM-00016.01/2020
20201008|ICBP|INDOFOOD CBP SUKSES MAKMUR Tbk|0.5|001/MM-00016.01/2020
20201008|ICON|ISLAND CONCEPTS INDONESIA Tbk|0.5|001/MM-00016.01/2020
20201008|IDPR|INDONESIA PONDASI RAYA Tbk|0.5|001/MM-00016.01/2020
20201008|IGAR|CHAMPION PACIFIC INDONESIA Tbk|0.5|001/MM-00016.01/2020
20201008|IIKP|INTI AGRI RESOURCES Tbk|0.5|001/MM-00016.01/2020
20201008|IKAI|INTIKERAMIK ALAMASRI INDUSTRI Tbk|0.5|001/MM-00016.01/2020
20201008|IKBI|SUMI INDO KABEL Tbk|0.5|001/MM-00016.01/2020
20201008|IMAS|INDOMOBIL SUKSES INTERNASIONAL Tbk|0.5|001/MM-00016.01/2020
20201008|IMJS|INDOMOBIL MULTI JASA Tbk|0.5|001/MM-00016.01/2020
20201008|IMPC|IMPACK PRATAMA INDUSTRI Tbk|0.5|001/MM-00016.01/2020
20201008|INAF|INDOFARMA (Persero) Tbk|0.5|001/MM-00016.01/2020
20201008|INAI|INDAL ALUMINIUM INDUSTRY Tbk|0.5|001/MM-00016.01/2020
20201008|INCF|INDO KOMODITI KORPORA Tbk|0.5|001/MM-00016.01/2020
20201008|INCI|INTANWIJAYA INTERNASIONAL Tbk|0.5|001/MM-00016.01/2020
20201008|INCO|VALE INDONESIA Tbk|0.5|001/MM-00016.01/2020
20201008|INDF|INDOFOOD SUKSES MAKMUR Tbk|0.5|001/MM-00016.01/2020
20201008|INDR|INDO-RAMA SYNTHETICS Tbk|0.5|001/MM-00016.01/2020
20201008|INDS|INDOSPRING Tbk|0.5|001/MM-00016.01/2020
20201008|INDX|TANAH LAUT Tbk|0.5|001/MM-00016.01/2020
20201008|INDY|INDIKA ENERGY Tbk|0.5|001/MM-00016.01/2020
20201008|INKP|INDAH KIAT PULP AND PAPER Tbk|0.5|001/MM-00016.01/2020
20201008|INPC|BANK ARTHA GRAHA INTERNASIONAL Tbk|0.5|001/MM-00016.01/2020
20201008|INPP|INDONESIAN PARADISE PROPERTY Tbk|0.5|001/MM-00016.01/2020
20201008|INPS|INDAH PRAKASA SENTOSA Tbk|0.5|001/MM-00016.01/2020
20201008|INRU|TOBA PULP LESTARI Tbk|0.5|001/MM-00016.01/2020
20201008|INTA|INTRACO PENTA Tbk|0.5|001/MM-00016.01/2020
20201008|INTD|INTER DELTA Tbk|0.5|001/MM-00016.01/2020
20201008|INTP|INDOCEMENT TUNGGAL PRAKARSA Tbk|0.5|001/MM-00016.01/2020
20201008|IPCC|INDONESIA KENDARAAN TERMINAL Tbk|0.5|001/MM-00016.01/2020
20201008|IPCM|JASA ARMADA INDONESIA Tbk|0.5|001/MM-00016.01/2020
20201008|IPOL|INDOPOLY SWAKARSA INDUSTRY Tbk|0.5|001/MM-00016.01/2020
20201008|ISAT|INDOSAT Tbk|0.5|001/MM-00016.01/2020
20201008|ISSP|STEEL PIPE INDUSTRY OF INDONESIA Tbk|0.5|001/MM-00016.01/2020
20201008|ITMA|SUMBER ENERGI ANDALAN Tbk|0.5|001/MM-00016.01/2020
20201008|ITMG|INDO TAMBANGRAYA MEGAH Tbk|0.5|001/MM-00016.01/2020
20201008|ITTG|LEO INVESTMENTS Tbk|0.5|001/MM-00016.01/2020
20201008|JASS|JASA ANGKASA SEMESTA Tbk|0.5|001/MM-00016.01/2020
20201008|JAWA|JAYA AGRA WATTIE Tbk|0.5|001/MM-00016.01/2020
20201008|JECC|JEMBO CABLE COMPANY Tbk|0.5|001/MM-00016.01/2020
20201008|JGLE|GRAHA ANDRASENTRA PROPERTINDO Tbk|0.5|001/MM-00016.01/2020
20201008|JIHD|JAKARTA INTERNATIONAL HOTELS AND DEVELOPMENT Tbk|0.5|001/MM-00016.01/2020
20201008|JKON|JAYA KONSTRUKSI MANGGALA PRATAMA Tbk|0.5|001/MM-00016.01/2020
20201008|JKSW|JAKARTA KYOEI STEEL WORKS Tbk|0.5|001/MM-00016.01/2020
20201008|JMAS|ASURANSI JIWA SYARIAH JASA MITRA ABADI Tbk|0.5|001/MM-00016.01/2020
20201008|JPFA|JAPFA COMFEED INDONESIA Tbk|0.5|001/MM-00016.01/2020
20201008|JPRS|JAYA PARI STEEL Tbk|0.5|001/MM-00016.01/2020
20201008|JRPT|JAYA REAL PROPERTY Tbk|0.5|001/MM-00016.01/2020
20201008|JSKY|SKY ENERGY INDONESIA Tbk|0.5|001/MM-00016.01/2020
20201008|JSMR|JASA MARGA (PERSERO) Tbk|0.5|001/MM-00016.01/2020
20201008|JSPT|JAKARTA SETIABUDI INTERNASIONAL Tbk|0.5|001/MM-00016.01/2020
20201008|JTPE|JASUINDO TIGA PERKASA Tbk|0.5|001/MM-00016.01/2020
20201008|KAEF|KIMIA FARMA (PERSERO) Tbk|0.5|001/MM-00016.01/2020
20201008|KARW|ICTSI JASA PRIMA Tbk|0.5|001/MM-00016.01/2020
20201008|KBLI|KMI Wire and Cable Tbk|0.5|001/MM-00016.01/2020
20201008|KBLM|KABELINDO MURNI Tbk|0.5|001/MM-00016.01/2020
20201008|KBLV|FIRST MEDIA Tbk|0.5|001/MM-00016.01/2020
20201008|KBRI|KERTAS BASUKI RACHMAT INDONESIA Tbk|0.5|001/MM-00016.01/2020
20201008|KDSI|KEDAWUNG SETIA INDUSTRIAL Tbk|0.5|001/MM-00016.01/2020
20201008|KIAS|KERAMIKA INDONESIA ASSOSIASI Tbk|0.5|001/MM-00016.01/2020
20201008|KICI|KEDAUNG INDAH CAN Tbk|0.5|001/MM-00016.01/2020
20201008|KIJA|KAWASAN INDUSTRI JABABEKA Tbk|0.5|001/MM-00016.01/2020
20201008|KINO|KINO INDONESIA Tbk|0.5|001/MM-00016.01/2020
20201008|KIOS|KIOSON KOMERSIAL INDONESIA Tbk|0.5|001/MM-00016.01/2020
20201008|KKGI|RESOURCE ALAM INDONESIA Tbk|0.5|001/MM-00016.01/2020
20201008|KLBF|KALBE FARMA Tbk|0.5|001/MM-00016.01/2020
20201008|KMTR|KIRANA MEGATARA Tbk|0.5|001/MM-00016.01/2020
20201008|KOBX|KOBEXINDO TRACTORS Tbk|0.5|001/MM-00016.01/2020
20201008|KOIN|KOKOH INTI AREBAMA Tbk|0.5|001/MM-00016.01/2020
20201008|KONI|PERDANA BANGUN PUSAKA Tbk|0.5|001/MM-00016.01/2020
20201008|KOPI|MITRA ENERGI PERSADA Tbk|0.5|001/MM-00016.01/2020
20201008|KPAL|STEADFAST MARINE Tbk|0.5|001/MM-00016.01/2020
20201008|KPAL-W|KPAL-W|0.5|001/MM-00016.01/2020
20201008|KPAS|COTTONINDO ARIESTA Tbk|0.5|001/MM-00016.01/2020
20201008|KPIG|MNC LAND Tbk|0.5|001/MM-00016.01/2020
20201008|KRAH|GRAND KARTECH Tbk|0.5|001/MM-00016.01/2020
20201008|KRAS|KRAKATAU STEEL Tbk|0.5|001/MM-00016.01/2020
20201008|KREN|KRESNA GRAHA INVESTAMA Tbk|0.5|001/MM-00016.01/2020
20201008|LAMI|Lamicitra Nusantara Tbk.|0.5|001/MM-00016.01/2020
20201008|LAND|TRIMITRA PROPERTINDO Tbk|0.5|001/MM-00016.01/2020
20201008|LAPD|LEYAND INTERNATIONAL Tbk|0.5|001/MM-00016.01/2020
20201008|LCGP|EUREKA PRIMA JAKARTA Tbk|0.5|001/MM-00016.01/2020
20201008|LCKM|LCK GLOBAL KEDATON Tbk|0.5|001/MM-00016.01/2020
20201008|LEAD|LOGINDO SAMUDRAMAKMUR Tbk|0.5|001/MM-00016.01/2020
20201008|LINK|LINK NET Tbk|0.5|001/MM-00016.01/2020
20201008|LION|LION METAL WORKS Tbk|0.5|001/MM-00016.01/2020
20201008|LMAS|LIMAS INDONESIA MAKMUR Tbk|0.5|001/MM-00016.01/2020
20201008|LMPI|LANGGENG MAKMUR INDUSTRI Tbk|0.5|001/MM-00016.01/2020
20201008|LMSH|LIONMESH PRIMA Tbk|0.5|001/MM-00016.01/2020
20201008|LPCK|LIPPO CIKARANG Tbk|0.5|001/MM-00016.01/2020
20201008|LPGI|LIPPO GENERAL INSURANCE Tbk|0.5|001/MM-00016.01/2020
20201008|LPIN|MULTI PRIMA SEJAHTERA Tbk|0.5|001/MM-00016.01/2020
20201008|LPKR|LIPPO KARAWACI Tbk|0.5|001/MM-00016.01/2020
20201008|LPLI|STAR PACIFIC Tbk|0.5|001/MM-00016.01/2020
20201008|LPPF|MATAHARI DEPARTMENT STORE Tbk|0.5|001/MM-00016.01/2020
20201008|LPPS|LIPPO SECURITIES Tbk|0.5|001/MM-00016.01/2020
20201008|LRNA|EKA SARI LORENA TRANSPORT Tbk|0.5|001/MM-00016.01/2020
20201008|LSIP|PP LONDON SUMATRA INDONESIA Tbk|0.5|001/MM-00016.01/2020
20201008|LTLS|LAUTAN LUAS Tbk|0.5|001/MM-00016.01/2020
20201008|LUCK|SENTRAL MITRA INFORMATIKA Tbk|0.5|001/MM-00016.01/2020
20201008|MABA|MARGA ABHINAYA ABADI Tbk|0.5|001/MM-00016.01/2020
20201008|MAGP|MULTI AGRO GEMILANG PLANTATION Tbk|0.5|001/MM-00016.01/2020
20201008|MAIN|MALINDO FEEDMILL Tbk|0.5|001/MM-00016.01/2020
20201008|MAMI|MAS MURNI INDONESIA Tbk|0.5|001/MM-00016.01/2020
20201008|MAMIP|MAS MURNI INDONESIA Tbk PREFEREN|0.5|001/MM-00016.01/2020
20201008|MAPA|MAP AKTIF ADIPERKASA Tbk|0.5|001/MM-00016.01/2020
20201008|MAPB|MAP BOGA ADIPERKASA Tbk|0.5|001/MM-00016.01/2020
20201008|MAPI|MITRA ADIPERKASA Tbk|0.5|001/MM-00016.01/2020
20201008|MARI|MAHAKA RADIO INTEGRA Tbk|0.5|001/MM-00016.01/2020
20201008|MARK|MARK DYNAMICS INDONESIA Tbk|0.5|001/MM-00016.01/2020
20201008|MASA|MULTISTRADA ARAH SARANA TBK|0.5|001/MM-00016.01/2020
20201008|MAYA|BANK MAYAPADA INTERNASIONAL Tbk|0.5|001/MM-00016.01/2020
20201008|MBAP|MITRABARA ADIPERDANA Tbk|0.5|001/MM-00016.01/2020
20201008|MBSS|MITRABAHTERA SEGARA SEJATI Tbk|0.5|001/MM-00016.01/2020
20201008|MBTO|MARTINA BERTO Tbk|0.5|001/MM-00016.01/2020
20201008|MCAS|M CASH INTEGRASI Tbk|0.5|001/MM-00016.01/2020
20201008|MCOR|BANK CHINA CONSTRUCTION BANK INDONESIA Tbk|0.5|001/MM-00016.01/2020
20201008|MDIA|INTERMEDIA CAPITAL Tbk|0.5|001/MM-00016.01/2020
20201008|MDKA|MERDEKA COPPER GOLD Tbk|0.5|001/MM-00016.01/2020
20201008|MDKI|EMDEKI UTAMA Tbk|0.5|001/MM-00016.01/2020
20201008|MDLN|MODERNLAND REALTY Tbk|0.5|001/MM-00016.01/2020
20201008|MDRN|MODERN INTERNASIONAL Tbk|0.5|001/MM-00016.01/2020
20201008|MEDC|MEDCO ENERGI INTERNASIONAL Tbk|0.5|001/MM-00016.01/2020
20201008|MEGA|BANK MEGA Tbk|0.5|001/MM-00016.01/2020
20201008|MERK|MERCK Tbk|0.5|001/MM-00016.01/2020
20201008|META|NUSANTARA INFRASTRUCTURE Tbk|0.5|001/MM-00016.01/2020
20201008|MFIN|MANDALA MULTIFINANCE Tbk|0.5|001/MM-00016.01/2020
20201008|MFMI|MULTIFILING MITRA INDONESIA Tbk|0.5|001/MM-00016.01/2020
20201008|MGNA|MAGNA INVESTAMA MANDIRI Tbk|0.5|001/MM-00016.01/2020
20201008|MGRO|MAHKOTA GROUP Tbk|0.5|001/MM-00016.01/2020
20201008|MICE|MULTI INDOCITRA Tbk|0.5|001/MM-00016.01/2020
20201008|MIDI|MIDI UTAMA INDONESIA Tbk|0.5|001/MM-00016.01/2020
20201008|MIKA|MITRA KELUARGA KARYASEHAT Tbk|0.5|001/MM-00016.01/2020
20201008|MINA|SANURHASTA MITRA Tbk|0.5|001/MM-00016.01/2020
20201008|MIRA|MITRA INTERNATIONAL RESOURCES Tbk|0.5|001/MM-00016.01/2020
20201008|MITI|MITRA INVESTINDO Tbk|0.5|001/MM-00016.01/2020
20201008|MKNT|MITRA KOMUNIKASI NUSANTARA Tbk|0.5|001/MM-00016.01/2020
20201008|MKPI|METROPOLITAN KENTJANA Tbk|0.5|001/MM-00016.01/2020
20201008|MLBI|MULTI BINTANG INDONESIA Tbk|0.5|001/MM-00016.01/2020
20201008|MLIA|MULIA INDUSTRINDO Tbk|0.5|001/MM-00016.01/2020
20201008|MLPL|MULTIPOLAR Tbk|0.5|001/MM-00016.01/2020
20201008|MLPT|MULTIPOLAR TECHNOLOGY Tbk|0.5|001/MM-00016.01/2020
20201008|MMLP|MEGA MANUNGGAL PROPERTY Tbk|0.5|001/MM-00016.01/2020
20201008|MNCN|MEDIA NUSANTARA CITRA Tbk|0.5|001/MM-00016.01/2020
20201008|MOLI|MADUSARI MURNI INDAH Tbk|0.5|001/MM-00016.01/2020
20201008|MPMX|MITRA PINASTHIKA MUSTIKA Tbk|0.5|001/MM-00016.01/2020
20201008|MPOW|MEGAPOWER MAKMUR Tbk|0.5|001/MM-00016.01/2020
20201008|MPPA|MATAHARI PUTRA PRIMA Tbk|0.5|001/MM-00016.01/2020
20201008|MPRO|PROPERTINDO MULIA INVESTAMA Tbk|0.5|001/MM-00016.01/2020
20201008|MRAT|MUSTIKA RATU Tbk|0.5|001/MM-00016.01/2020
20201008|MREI|MASKAPAI REASURANSI INDONESIA Tbk|0.5|001/MM-00016.01/2020
20201008|MSIN|MNC STUDIOS INTERNATIONAL Tbk|0.5|001/MM-00016.01/2020
20201008|MSKY|MNC SKY VISION Tbk|0.5|001/MM-00016.01/2020
20201008|MTDL|METRODATA ELECTRONICS Tbk|0.5|001/MM-00016.01/2020
20201008|MTFN|CAPITALINC INVESTMENT Tbk|0.5|001/MM-00016.01/2020
20201008|MTLA|METROPOLITAN LAND Tbk|0.5|001/MM-00016.01/2020
20201008|MTRA|MITRA PEMUDA Tbk|0.5|001/MM-00016.01/2020
20201008|MTSM|METRO REALTY Tbk, PT|0.5|001/MM-00016.01/2020
20201008|MTWI|MALACCA TRUST WUWUNGAN INSURANCE Tbk|0.5|001/MM-00016.01/2020
20201008|MYOH|SAMINDO RESOURCES Tbk|0.5|001/MM-00016.01/2020
20201008|MYOR|MAYORA INDAH Tbk|0.5|001/MM-00016.01/2020
20201008|MYRX|HANSON INTERNATIONAL Tbk|0.5|001/MM-00016.01/2020
20201008|MYRXP|HANSON INTERNATIONAL Tbk - SERI B|0.5|001/MM-00016.01/2020
20201008|MYTX|ASIA PACIFIC INVESTAMA Tbk|0.5|001/MM-00016.01/2020
20201008|NAGA|BANK MITRANIAGA Tbk|0.5|001/MM-00016.01/2020
20201008|NASA|AYANA LAND INTERNATIONAL Tbk|0.5|001/MM-00016.01/2020
20201008|NELY|PELAYARAN NELLY DWI PUTRI Tbk|0.5|001/MM-00016.01/2020
20201008|NFCX|NFC INDONESIA Tbk|0.5|001/MM-00016.01/2020
20201008|NICK|CHARNIC CAPITAL Tbk|0.5|001/MM-00016.01/2020
20201008|NIKL|PELAT TIMAH NUSANTARA Tbk|0.5|001/MM-00016.01/2020
20201008|NIPS|NIPRESS Tbk|0.5|001/MM-00016.01/2020
20201008|NIRO|NIRVANA DEVELOPMENT Tbk|0.5|001/MM-00016.01/2020
20201008|NISP|BANK OCBC NISP Tbk|0.5|001/MM-00016.01/2020
20201008|NOBU|BANK NATIONALNOBU Tbk|0.5|001/MM-00016.01/2020
20201008|NRCA|NUSA RAYA CIPTA Tbk|0.5|001/MM-00016.01/2020
20201008|NUSA|SINERGI MEGAH INTERNUSA Tbk|0.5|001/MM-00016.01/2020
20201008|NUSA-W|NULL|0.5|001/MM-00016.01/2020
20201008|OASA|PROTECH MITRA PERKASA Tbk|0.5|001/MM-00016.01/2020
20201008|OCAP|ONIX CAPITAL Tbk|0.5|001/MM-00016.01/2020
20201008|OKAS|ANCORA INDONESIA RESOURCES Tbk|0.5|001/MM-00016.01/2020
20201008|OMRE|INDONESIA PRIMA PROPERTY Tbk|0.5|001/MM-00016.01/2020
20201008|PADI|MINNA PADI INVESTAMA SEKURITAS Tbk|0.5|001/MM-00016.01/2020
20201008|PALM|PROVIDENT AGRO Tbk|0.5|001/MM-00016.01/2020
20201008|PANI|PRATAMA ABADI NUSA INDUSTRI Tbk|0.5|001/MM-00016.01/2020
20201008|PANR|PANORAMA SENTRAWISATA Tbk|0.5|001/MM-00016.01/2020
20201008|PANS|PANIN SEKURITAS Tbk|0.5|001/MM-00016.01/2020
20201008|PBID|PANCA BUDI IDAMAN Tbk|0.5|001/MM-00016.01/2020
20201008|PBRX|PAN BROTHERS Tbk|0.5|001/MM-00016.01/2020
20201008|PBSA|PARAMITA BANGUN SARANA Tbk|0.5|001/MM-00016.01/2020
20201008|PCAR|PRIMA CAKRAWALA ABADI Tbk|0.5|001/MM-00016.01/2020
20201008|PDES|DESTINASI TIRTA NUSANTARA Tbk|0.5|001/MM-00016.01/2020
20201008|PEGE|PANCA GLOBAL KAPITAL Tbk|0.5|001/MM-00016.01/2020
20201008|PEHA|PHAPROS Tbk|0.5|001/MM-00016.01/2020
20201008|PGAS|PERUSAHAAN GAS NEGARA (PERSERO) Tbk|0.5|001/MM-00016.01/2020
20201008|PGLI|PEMBANGUNAN GRAHA LESTARI INDAH Tbk|0.5|001/MM-00016.01/2020
20201008|PICO|PELANGI INDAH CANINDO Tbk|0.5|001/MM-00016.01/2020
20201008|PJAA|PEMBANGUNAN JAYA ANCOL Tbk|0.5|001/MM-00016.01/2020
20201008|PKPK|PERDANA KARYA PERKASA Tbk|0.5|001/MM-00016.01/2020
20201008|PLAS|POLARIS INVESTAMA TBK|0.5|001/MM-00016.01/2020
20201008|PLIN|PLAZA INDONESIA REALTY Tbk|0.5|001/MM-00016.01/2020
20201008|PNBN|BANK PAN INDONESIA Tbk|0.5|001/MM-00016.01/2020
20201008|PNBS|BANK PANIN DUBAI SYARIAH Tbk|0.5|001/MM-00016.01/2020
20201008|PNIN|PANINVEST Tbk|0.5|001/MM-00016.01/2020
20201008|PNLF|PANIN FINANCIAL Tbk|0.5|001/MM-00016.01/2020
20201008|PNSE|PUDJIADI AND SONS Tbk|0.5|001/MM-00016.01/2020
20201008|POLA|POOL ADVISTA FINANCE Tbk|0.5|001/MM-00016.01/2020
20201008|POLL|POLLUX PROPERTI INDONESIA Tbk|0.5|001/MM-00016.01/2020
20201008|POLY|ASIA PACIFIC FIBERS Tbk|0.5|001/MM-00016.01/2020
20201008|POOL|POOL ADVISTA INDONESIA Tbk|0.5|001/MM-00016.01/2020
20201008|PORT|NUSANTARA PELABUHAN HANDAL Tbk|0.5|001/MM-00016.01/2020
20201008|POWR|CIKARANG LISTRINDO Tbk|0.5|001/MM-00016.01/2020
20201008|PPRE|PP PRESISI Tbk|0.5|001/MM-00016.01/2020
20201008|PPRO|PP Properti Tbk|0.5|001/MM-00016.01/2020
20201008|PRAS|PRIMA ALLOY STEEL UNIVERSAL Tbk|0.5|001/MM-00016.01/2020
20201008|PRDA|PRODIA WIDYAHUSADA Tbk|0.5|001/MM-00016.01/2020
20201008|PRIM|PRIM|0.5|001/MM-00016.01/2020
20201008|PRIM-W|PRIM-W|0.5|001/MM-00016.01/2020
20201008|PSAB|J RESOURCES ASIA PASIFIK Tbk|0.5|001/MM-00016.01/2020
20201008|PSDN|PRASIDHA ANEKA NIAGA Tbk|0.5|001/MM-00016.01/2020
20201008|PSKT|RED PLANET INDONESIA Tbk|0.5|001/MM-00016.01/2020
20201008|PSSI|PELITA SAMUDERA SHIPPING Tbk|0.5|001/MM-00016.01/2020
20201008|PTBA|BUKIT ASAM Tbk|0.5|001/MM-00016.01/2020
20201008|PTIS|INDO STRAITS Tbk|0.5|001/MM-00016.01/2020
20201008|PTPP|PP (PERSERO) Tbk|0.5|001/MM-00016.01/2020
20201008|PTRA|NEW CENTURY DEVELOPMENT Tbk|0.5|001/MM-00016.01/2020
20201008|PTRO|PETROSEA Tbk|0.5|001/MM-00016.01/2020
20201008|PTSN|SAT NUSAPERSADA Tbk|0.5|001/MM-00016.01/2020
20201008|PTSP|PIONEERINDO GOURMET INTERNATIONAL Tbk|0.5|001/MM-00016.01/2020
20201008|PUDP|PUDJIADI PRESTIGE Tbk|0.5|001/MM-00016.01/2020
20201008|PWON|PAKUWON JATI Tbk|0.5|001/MM-00016.01/2020
20201008|PYFA|PYRIDAM FARMA Tbk|0.5|001/MM-00016.01/2020
20201008|PZZA|SARIMELATI KENCANA Tbk|0.5|001/MM-00016.01/2020
20201008|R-ABFII|NULL|0.5|001/MM-00016.01/2020
20201008|R-LQ45X|R-LQ45X|0.5|001/MM-00016.01/2020
20201008|RAJA|RUKUN RAHARJA Tbk|0.5|001/MM-00016.01/2020
20201008|RALS|RAMAYANA LESTARI SENTOSA Tbk|0.5|001/MM-00016.01/2020
20201008|RANC|SUPRA BOGA LESTARI Tbk|0.5|001/MM-00016.01/2020
20201008|RBMS|RISTIA BINTANG MAHKOTASEJATI Tbk|0.5|001/MM-00016.01/2020
20201008|RDTX|RODA VIVATEX Tbk|0.5|001/MM-00016.01/2020
20201008|RELI|RELIANCE SEKURITAS INDONESIA Tbk|0.5|001/MM-00016.01/2020
20201008|RICY|RICKY PUTRA GLOBALINDO Tbk|0.5|001/MM-00016.01/2020
20201008|RIGS|RIG TENDERS INDONESIA Tbk|0.5|001/MM-00016.01/2020
20201008|RIMO|RIMO INTERNATIONAL LESTARI Tbk|0.5|001/MM-00016.01/2020
20201008|RINA|KATARINA UTAMA Tbk|0.5|001/MM-00016.01/2020
20201008|RISE|JAYA SUKSES MAKMUR SENTOSA Tbk|0.5|001/MM-00016.01/2020
20201008|RMBA|BENTOEL INTERNATIONAL INVESTAMA Tbk|0.5|001/MM-00016.01/2020
20201008|RODA|PIKKO LAND DEVELOPMENT Tbk|0.5|001/MM-00016.01/2020
20201008|ROTI|NIPPON INDOSARI CORPINDO Tbk|0.5|001/MM-00016.01/2020
20201008|RUIS|RADIANT UTAMA INTERINSCO Tbk|0.5|001/MM-00016.01/2020
20201008|SAFE|STEADY SAFE Tbk|0.5|001/MM-00016.01/2020
20201008|SAME|SARANA MEDITAMA METROPOLITAN Tbk|0.5|001/MM-00016.01/2020
20201008|SAPX|SATRIA ANTARAN PRIMA Tbk|0.5|001/MM-00016.01/2020
20201008|SATU|KOTA SATU PROPERTI Tbk|0.5|001/MM-00016.01/2020
20201008|SCBD|DANAYASA ARTHATAMA Tbk|0.5|001/MM-00016.01/2020
20201008|SCCO|SUPREME CABLE MANUFACTURING AND COMMERCE Tbk|0.5|001/MM-00016.01/2020
20201008|SCMA|SURYA CITRA MEDIA Tbk|0.5|001/MM-00016.01/2020
20201008|SCPI|MERCK SHARP DOHME PHARMA Tbk|0.5|001/MM-00016.01/2020
20201008|SDMU|SIDOMULYO SELARAS Tbk|0.5|001/MM-00016.01/2020
20201008|SDPC|MILLENNIUM PHARMACON INTERNATIONAL Tbk|0.5|001/MM-00016.01/2020
20201008|SDRA|BANK WOORI SAUDARA INDONESIA 1906 Tbk|0.5|001/MM-00016.01/2020
20201008|SGRO|SAMPOERNA AGRO Tbk|0.5|001/MM-00016.01/2020
20201008|SHID|HOTEL SAHID JAYA INTERNATIONAL Tbk|0.5|001/MM-00016.01/2020
20201008|SHIP|SILLO MARITIME PERDANA Tbk|0.5|001/MM-00016.01/2020
20201008|SIAP|SEKAWAN INTIPRATAMA Tbk|0.5|001/MM-00016.01/2020
20201008|SIDO|INDUSTRI JAMU DAN FARMASI SIDO MUNCUL Tbk|0.5|001/MM-00016.01/2020
20201008|SIIP|SURYAINTI PERMATA Tbk|0.5|001/MM-00016.01/2020
20201008|SILO|SILOAM INTERNATIONAL HOSPITALS Tbk|0.5|001/MM-00016.01/2020
20201008|SIMA|SIWANI MAKMUR Tbk|0.5|001/MM-00016.01/2020
20201008|SIMM|SURYA INTRINDO MAKMUR Tbk|0.5|001/MM-00016.01/2020
20201008|SIMP|SALIM IVOMAS PRATAMA Tbk|0.5|001/MM-00016.01/2020
20201008|SIPD|SIERAD PRODUCE Tbk|0.5|001/MM-00016.01/2020
20201008|SKBM|SEKAR BUMI Tbk|0.5|001/MM-00016.01/2020
20201008|SKLT|SEKAR LAUT Tbk|0.5|001/MM-00016.01/2020
20201008|SKRN|SUPERKRANE MITRA UTAMA Tbk|0.5|001/MM-00016.01/2020
20201008|SKYB|SKYBEE Tbk|0.5|001/MM-00016.01/2020
20201008|SMAR|SINAR MAS AGRO RESOURCES AND TECHNOLOGY Tbk|0.5|001/MM-00016.01/2020
20201008|SMBR|SEMEN BATURAJA (PERSERO) Tbk|0.5|001/MM-00016.01/2020
20201008|SMCB|HOLCIM INDONESIA Tbk|0.5|001/MM-00016.01/2020
20201008|SMDM|SURYAMAS DUTAMAKMUR Tbk|0.5|001/MM-00016.01/2020
20201008|SMDR|SAMUDERA INDONESIA Tbk|0.5|001/MM-00016.01/2020
20201008|SMGR|SEMEN INDONESIA (PERSERO) Tbk|0.5|001/MM-00016.01/2020
20201008|SMMA|SINAR MAS MULTIARTHA Tbk|0.5|001/MM-00016.01/2020
20201008|SMMT|GOLDEN EAGLE ENERGY Tbk|0.5|001/MM-00016.01/2020
20201008|SMRA|SUMMARECON AGUNG Tbk|0.5|001/MM-00016.01/2020
20201008|SMRU|SMR UTAMA Tbk|0.5|001/MM-00016.01/2020
20201008|SMSM|SELAMAT SEMPURNA Tbk|0.5|001/MM-00016.01/2020
20201008|SOCI|SOECHI LINES Tbk|0.5|001/MM-00016.01/2020
20201008|SONA|SONA TOPAS TOURISM INDUSTRY Tbk|0.5|001/MM-00016.01/2020
20201008|SOSS|SHIELD ON SERVICE Tbk|0.5|001/MM-00016.01/2020
20201008|SOTS|SATRIA MEGA KENCANA Tbk|0.5|001/MM-00016.01/2020
20201008|SPMA|SUPARMA Tbk|0.5|001/MM-00016.01/2020
20201008|SPTO|SURYA PERTIWI Tbk|0.5|001/MM-00016.01/2020
20201008|SQBB|Taisho Pharmaceutical Indonesia Tbk.|0.5|001/MM-00016.01/2020
20201008|SQBI|Taisho Pharmaceutical Indonesia Tbk.|0.5|001/MM-00016.01/2020
20201008|SQMI|RENUKA COALINDO Tbk|0.5|001/MM-00016.01/2020
20201008|SRAJ|SEJAHTERARAYA ANUGRAHJAYA Tbk, PT|0.5|001/MM-00016.01/2020
20201008|SRIL|SRI REJEKI ISMAN Tbk|0.5|001/MM-00016.01/2020
20201008|SRSN|INDO ACIDATAMA Tbk|0.5|001/MM-00016.01/2020
20201008|SRTG|SARATOGA INVESTAMA SEDAYA Tbk|0.5|001/MM-00016.01/2020
20201008|SSIA|SURYA SEMESTA INTERNUSA Tbk|0.5|001/MM-00016.01/2020
20201008|SSMS|SAWIT SUMBERMAS SARANA Tbk|0.5|001/MM-00016.01/2020
20201008|SSTM|SUNSON TEXTILE MANUFACTURER Tbk|0.5|001/MM-00016.01/2020
20201008|STAR|STAR PETROCHEM Tbk|0.5|001/MM-00016.01/2020
20201008|STTP|SIANTAR TOP Tbk|0.5|001/MM-00016.01/2020
20201008|SUDI|SURYA DUMAI INDUSTRI Tbk|0.5|001/MM-00016.01/2020
20201008|SUGI|SUGIH ENERGY Tbk, PT|0.5|001/MM-00016.01/2020
20201008|SULI|SLJ GLOBAL Tbk|0.5|001/MM-00016.01/2020
20201008|SUPR|SOLUSI TUNAS PRATAMA Tbk|0.5|001/MM-00016.01/2020
20201008|SURE|SUPER ENERGY Tbk|0.5|001/MM-00016.01/2020
20201008|SWAT|SRIWAHANA ADITYAKARTA Tbk|0.5|001/MM-00016.01/2020
20201008|TALF|TUNAS ALFIN Tbk|0.5|001/MM-00016.01/2020
20201008|TAMU|PELAYARAN TAMARIN SAMUDRA Tbk|0.5|001/MM-00016.01/2020
20201008|TARA|SITARA PROPERTINDO Tbk|0.5|001/MM-00016.01/2020
20201008|TAXI|EXPRESS TRANSINDO UTAMA Tbk|0.5|001/MM-00016.01/2020
20201008|TBIG|TOWER BERSAMA INFRASTRUCTURE Tbk|0.5|001/MM-00016.01/2020
20201008|TBLA|TUNAS BARU LAMPUNG Tbk|0.5|001/MM-00016.01/2020
20201008|TBMS|TEMBAGA MULIA SEMANAN Tbk|0.5|001/MM-00016.01/2020
20201008|TCID|MANDOM INDONESIA Tbk|0.5|001/MM-00016.01/2020
20201008|TCPI|TRANSCOAL PACIFIC Tbk|0.5|001/MM-00016.01/2020
20201008|TDPM|TRIDOMAIN PERFORMANCE MATERIALS Tbk|0.5|001/MM-00016.01/2020
20201008|TELE|TIPHONE MOBILE INDONESIA Tbk|0.5|001/MM-00016.01/2020
20201008|TFCO|TIFICO FIBER INDONESIA Tbk|0.5|001/MM-00016.01/2020
20201008|TGKA|TIGARAKSA SATRIA Tbk|0.5|001/MM-00016.01/2020
20201008|TGRA|TERREGRA ASIA ENERGY Tbk|0.5|001/MM-00016.01/2020
20201008|TIFA|TIFA FINANCE Tbk|0.5|001/MM-00016.01/2020
20201008|TINS|TIMAH Tbk|0.5|001/MM-00016.01/2020
20201008|TIRA|TIRA AUSTENITE Tbk|0.5|001/MM-00016.01/2020
20201008|TIRT|TIRTA MAHAKAM RESOURCES Tbk|0.5|001/MM-00016.01/2020
20201008|TKIM|PABRIK KERTAS TJIWI KIMIA Tbk|0.5|001/MM-00016.01/2020
20201008|TLKM|TELEKOMUNIKASI INDONESIA Tbk|0.5|001/MM-00016.01/2020
20201008|TMAS|PELAYARAN TEMPURAN EMAS Tbk|0.5|001/MM-00016.01/2020
20201008|TMPI|SIGMAGOLD INTI PERKASA Tbk|0.5|001/MM-00016.01/2020
20201008|TMPO|TEMPO INTI MEDIA Tbk|0.5|001/MM-00016.01/2020
20201008|TNCA|TRIMUDA NUANSA CITRA Tbk|0.5|001/MM-00016.01/2020
20201008|TOBA|TOBA BARA SEJAHTRA Tbk|0.5|001/MM-00016.01/2020
20201008|TOPS|TOTALINDO EKA PERSADA Tbk|0.5|001/MM-00016.01/2020
20201008|TOTL|TOTAL BANGUN PERSADA Tbk|0.5|001/MM-00016.01/2020
20201008|TOTO|SURYA TOTO INDONESIA Tbk|0.5|001/MM-00016.01/2020
20201008|TOWR|SARANA MENARA NUSANTARA Tbk|0.5|001/MM-00016.01/2020
20201008|TPIA|CHANDRA ASRI PETROCHEMICAL Tbk|0.5|001/MM-00016.01/2020
20201008|TPMA|TRANS POWER MARINE Tbk|0.5|001/MM-00016.01/2020
20201008|TRAM|TRADA ALAM MINERA Tbk|0.5|001/MM-00016.01/2020
20201008|TRIL|TRIWIRA INSANLESTARI Tbk|0.5|001/MM-00016.01/2020
20201008|TRIM|TRIMEGAH SEKURITAS INDONESIA Tbk|0.5|001/MM-00016.01/2020
20201008|TRIO|TRIKOMSEL OKE Tbk|0.5|001/MM-00016.01/2020
20201008|TRIS|TRISULA INTERNATIONAL Tbk|0.5|001/MM-00016.01/2020
20201008|TRST|TRIAS SENTOSA Tbk|0.5|001/MM-00016.01/2020
20201008|TRUB|Truba Alam Manunggal Engineering Tbk.|0.5|001/MM-00016.01/2020
20201008|TRUK|GUNA TIMUR RAYA Tbk|0.5|001/MM-00016.01/2020
20201008|TRUS|TRUST FINANCE INDONESIA Tbk|0.5|001/MM-00016.01/2020
20201008|TSPC|TEMPO SCAN PACIFIC Tbk|0.5|001/MM-00016.01/2020
20201008|TUGU|ASURANSI TUGU PRATAMA INDONESIA Tbk|0.5|001/MM-00016.01/2020
20201008|TURI|TUNAS RIDEAN Tbk|0.5|001/MM-00016.01/2020
20201008|ULTJ|ULTRAJAYA MILK INDUSTRY AND TRADING COMPANY Tbk|0.5|001/MM-00016.01/2020
20201008|UNIC|UNGGUL INDAH CAHAYA Tbk|0.5|001/MM-00016.01/2020
20201008|UNIT|NUSANTARA INTI CORPORA Tbk|0.5|001/MM-00016.01/2020
20201008|UNSP|BAKRIE SUMATERA PLANTATIONS Tbk|0.5|001/MM-00016.01/2020
20201008|UNTR|UNITED TRACTORS Tbk|0.5|001/MM-00016.01/2020
20201008|UNVR|UNILEVER INDONESIA Tbk|0.5|001/MM-00016.01/2020
20201008|URBN|URBAN JAKARTA PROPERTINDO Tbk|0.5|001/MM-00016.01/2020
20201008|VICO|VICTORIA INVESTAMA Tbk|0.5|001/MM-00016.01/2020
20201008|VINS|VICTORIA INSURANCE Tbk|0.5|001/MM-00016.01/2020
20201008|VIVA|VISI MEDIA ASIA Tbk|0.5|001/MM-00016.01/2020
20201008|VOKS|VOKSEL ELECTRIC Tbk|0.5|001/MM-00016.01/2020
20201008|VRNA|VERENA MULTI FINANCE Tbk|0.5|001/MM-00016.01/2020
20201008|WAPO|WAHANA PRONATURAL Tbk|0.5|001/MM-00016.01/2020
20201008|WEGE|WIJAYA KARYA BANGUNAN GEDUNG Tbk|0.5|001/MM-00016.01/2020
20201008|WEHA|WEHA TRANSPORTASI INDONESIA Tbk|0.5|001/MM-00016.01/2020
20201008|WICO|WICAKSANA OVERSEAS INTERNATIONAL Tbk|0.5|001/MM-00016.01/2020
20201008|WIIM|WISMILAK INTI MAKMUR Tbk|0.5|001/MM-00016.01/2020
20201008|WIKA|WIJAYA KARYA (PERSERO) Tbk|0.5|001/MM-00016.01/2020
20201008|WINS|WINTERMAR OFFSHORE MARINE Tbk|0.5|001/MM-00016.01/2020
20201008|WOMF|WAHANA OTTOMITRA MULTIARTHA Tbk|0.5|001/MM-00016.01/2020
20201008|WOOD|INTEGRA INDOCABINET Tbk|0.5|001/MM-00016.01/2020
20201008|WSBP|WASKITA BETON PRECAST Tbk|0.5|001/MM-00016.01/2020
20201008|WSKT|WASKITA KARYA (PERSERO) Tbk|0.5|001/MM-00016.01/2020
20201008|WTON|WIJAYA KARYA BETON Tbk|0.5|001/MM-00016.01/2020
20201008|XBLQ|NULL|0.5|001/MM-00016.01/2020
20201008|XBNI|XBNI|0.5|001/MM-00016.01/2020
20201008|XCID|XCID|0.5|001/MM-00016.01/2020
20201008|XDIF|NULL|0.5|001/MM-00016.01/2020
20201008|XIHD|REKSA DANA INDEKS PREMIER ETF IDX HIGH D|0.5|001/MM-00016.01/2020
20201008|XIIC|Reksa Dana Premier ETF Indonesia Consumer|0.5|001/MM-00016.01/2020
20201008|XIIF|XIIF|0.5|001/MM-00016.01/2020
20201008|XIIT|XIIT|0.5|001/MM-00016.01/2020
20201008|XIJI|XIJI|0.5|001/MM-00016.01/2020
20201008|XIPI|REKSA DANA INDEKS PREMIER ETF PEFINDO I-|0.5|001/MM-00016.01/2020
20201008|XISB|NULL|0.5|001/MM-00016.01/2020
20201008|XISC|XISC|0.5|001/MM-00016.01/2020
20201008|XISI|Premier ETF SMinfra18|0.5|001/MM-00016.01/2020
20201008|XISR|XISR|0.5|001/MM-00016.01/2020
20201008|XMTS|NULL|0.5|001/MM-00016.01/2020
20201008|XPDV|XPDV|0.5|001/MM-00016.01/2020
20201008|XPES|XPES|0.5|001/MM-00016.01/2020
20201008|XPID|NULL|0.5|001/MM-00016.01/2020
20201008|XPLC|XPLC|0.5|001/MM-00016.01/2020
20201008|XPLQ|XPLQ|0.5|001/MM-00016.01/2020
20201008|XSBC|REKSA DANA INDEKS SIMAS ETF IDX30|0.5|001/MM-00016.01/2020
20201008|YELO|YELOOO INTEGRA DATANET Tbk|0.5|001/MM-00016.01/2020
20201008|YPAS|YANAPRIMA HASTAPERSADA Tbk|0.5|001/MM-00016.01/2020
20201008|YULE|YULIE SEKURITAS INDONESIA Tbk|0.5|001/MM-00016.01/2020
20201008|ZBRA|ZEBRA NUSANTARA Tbk|0.5|001/MM-00016.01/2020
20201008|ZINC|KAPUAS PRIMA COAL Tbk|0.5|001/MM-00016.01/2020
20201008|ZONE|MEGA PERINTIS Tbk|0.5|001/MM-00016.01/2020
